{
  "products": [
    {
      "name": "Google Pixel 6 128 GB",
      "price": "CA$799",
      "image": "https://lh3.googleusercontent.com/urpz6ODD8ng00azErmXpqRGjkLxn5dZ0DHX8TbbQk-Y_QhQFzLKY3CR6S_GJYm6E6dLiEOOUOvgd-1QOVtnSZK0ND3-3v8DvOi8",
      "articul": "999",
      "color": "Sorta Seafoam"
    },
    {
      "name": "Google Pixel 6 128 GB",
      "price": "CA$799",
      "image": "https://lh3.googleusercontent.com/_Ed3MN-uNWMVVApjbe09dCYRJN9RNvsGoc6u5tdyZMbcTomr6SjL7N_AOLJ2a4orrvol4zydF5CWCcnZohzXicV392jy8A8KlTSi",
      "articul": "998",
      "color": "Cinda Coral"
    },
    {
      "name": "Google Pixel 6 128 GB",
      "price": "CA$799",
      "image": "https://lh3.googleusercontent.com/7HTZV2yrTrKb89eFVtQ6e0RfiFbYM-zZIPFhQORNO2mM5NGDqh-Ar1hpc_9PcOcBpgHfBBFA7hMep7jsP3nkXUi2AFT2hB9RjDc",
      "articul": "997",
      "color": "Stormy Black"
    },
    {
      "name": "Google Pixel 6 Pro 128 GB",
      "price": "CA$1,179",
      "image": "https://lh3.googleusercontent.com/HEKLZqZpHAPSYW_oICnLmiLT6ItfGIVY-3W-MglfKodVG8Um_VtszFYhkIB1JNnondvT51mHB4E5UuGT8cfySzapV8z_hTELfdU",
      "articul": "996",
      "color": "Sorta Sunny"
    },
    {
      "name": "Google Pixel 6 Pro 128 GB",
      "price": "CA$1,179",
      "image": "https://lh3.googleusercontent.com/yYpYyX5AdvzzeMq3mZc1wi12GJ32wkxtdhCVwAGMF6mnUg4gMpzTteJvTEq3_2adbZI4Z-uPS1eEbUNRIBLovFWuyp-JW3P4IQ",
      "articul": "995",
      "color": "Cloudy White"
    },
    {
      "name": "Google Pixel 6 Pro 128 GB",
      "price": "CA$1,179",
      "image": "https://lh3.googleusercontent.com/TsBYd6kVVL63ses-2HU_Rfr4TLQn49PAoJs8Xok7ZuqGD6Nw0rb7U_37lkDDV-WPfbrHi64cQcL7pg8uuZIa-PZHNzHOf-SzLms",
      "articul": "994",
      "color": "Stormy Black"
    },
    {
      "name": "Google Pixel Buds A-Series",
      "price": "CA$139",
      "image": "https://lh3.googleusercontent.com/VXHN1a0zrV0Z0qDk6B-jW04XpHdnfkgRVSmvIosDk7EPxPEYiIcSuwrlTh8e4GAOpCVmFhY74IuLSYdsbjCdgnwUr5r188u4L8_i",
      "articul": "993",
      "color": "Dark Olive"
    },
    {
      "name": "Google Pixel Buds A-Series",
      "price": "CA$139",
      "image": "https://lh3.googleusercontent.com/FCPT8_WzqCQiNKNzffjEgZ-hd6XjeuwpeA4PWGU-55eKkoyrUfR--_QHS_ImTPXelWNRDy56hYF_cf2RJP_GpOlaFeCWqDBK1443",
      "articul": "992",
      "color": "Clearly White"
    },
    {
      "name": "Google Pixel 6a 128 GB",
      "price": "CA$599",
      "image": "https://lh3.googleusercontent.com/o-mHbrg8XugVY0xBEz_wEoiibXrMb1fypJSSt5EhMdut2SducTomLV0xgFUw37I8mV3lTVezchaLD0MZaN5dqYOxfwPj6lCXkQ=rw-e365-w1182",
      "articul": "991",
      "color": "Sage"
    },
    {
      "name": "Google Pixel 6a 256 GB",
      "price": "CA$799",
      "image": "https://lh3.googleusercontent.com/o-mHbrg8XugVY0xBEz_wEoiibXrMb1fypJSSt5EhMdut2SducTomLV0xgFUw37I8mV3lTVezchaLD0MZaN5dqYOxfwPj6lCXkQ=rw-e365-w1182",
      "articul": "990",
      "color": "Sage"
    }
  ]
}
